[gd_scene load_steps=3 format=2]

[sub_resource type="Shader" id=1]
code = "shader_type canvas_item;

void fragment()
{
	vec2 UR = SCREEN_UV;
	vec2 U = UR;
	float C = 1.0 - U.y;
	U = 4.* U + vec2(-1.,sin(UR.x*4.)*cos(TIME));         // normalized coordinates
   	U.y = 1.-U.y*2.;                   // swap vertical
    U /= 1.+U.y/10.;                // perspective
    U.y -= TIME*2.;
    U = abs(fract(U)-.50);           // distance to axis
    U = .1/ sqrt(U);  
	
	COLOR = (U.x*C+U.y*C*2.) * vec4(.5,.3,1.,1.0) * C + vec4(.4,0.1,.2,2.0) * C;
}"

[sub_resource type="ShaderMaterial" id=2]
shader = SubResource( 1 )

[node name="Panel" type="Panel"]
material = SubResource( 2 )
anchor_right = 1.0
anchor_bottom = 1.0
__meta__ = {
"_edit_use_anchors_": false
}
